<?xml version="1.0" standalone="no"?>
<!DOCTYPE svg PUBLIC "-//W3C//DTD SVG 20010904//EN"
 "http://www.w3.org/TR/2001/REC-SVG-20010904/DTD/svg10.dtd">
<svg version="1.0" xmlns="http://www.w3.org/2000/svg"
 width="16.000000pt" height="16.000000pt" viewBox="0 0 16.000000 16.000000"
 preserveAspectRatio="xMidYMid meet">
<metadata>
Created by potrace 1.11, written by Peter Selinger 2001-2013
</metadata>
<g transform="translate(0.000000,16.000000) scale(0.013115,-0.013115)"
fill="#000000" stroke="none">
<path d="M510 1203 c-53 -9 -157 -46 -205 -73 -56 -32 -135 -97 -135 -111 0
-5 33 -9 73 -9 l72 0 55 54 c53 52 159 126 179 126 5 0 13 5 16 10 6 10 -8 11
-55 3z"/>
<path d="M695 1173 c40 -22 98 -66 134 -102 l64 -64 79 -1 c43 -1 78 1 78 4 0
14 -80 82 -135 115 -68 41 -156 70 -236 79 l-54 7 70 -38z"/>
<path d="M570 1152 c-33 -50 -64 -103 -73 -124 -6 -16 0 -18 47 -18 l53 0 1
90 c1 50 1 90 -1 90 -1 0 -13 -17 -27 -38z"/>
<path d="M501 1148 c-29 -17 -79 -55 -110 -84 l-56 -53 66 -1 65 0 51 85 c28
47 48 85 44 85 -3 0 -30 -15 -60 -32z"/>
<path d="M610 1095 l0 -85 55 0 c30 0 55 3 55 7 0 8 -66 123 -83 146 -8 9 -17
17 -21 17 -3 0 -6 -38 -6 -85z"/>
<path d="M663 1147 c14 -17 37 -56 51 -84 l26 -53 60 0 c33 0 60 3 60 6 0 3
-21 26 -46 50 -47 47 -107 88 -150 104 l-25 10 24 -33z"/>
<path d="M116 958 c-33 -45 -76 -128 -76 -144 0 -6 12 -10 27 -9 26 1 28 4 25
43 l-4 42 79 0 78 0 24 44 c13 25 23 48 22 53 0 4 -34 9 -73 10 l-73 2 -29
-41z"/>
<path d="M316 980 c-32 -38 -57 -90 -44 -91 7 0 35 -2 62 -4 34 -2 54 -8 63
-21 7 -9 15 -15 17 -13 6 6 36 119 36 134 0 18 -118 14 -134 -5z"/>
<path d="M997 974 c47 -20 99 -79 114 -129 10 -32 19 -45 36 -48 13 -2 25 -1
28 2 5 10 -31 87 -67 144 l-30 47 -57 -1 -56 -1 32 -14z"/>
<path d="M439 872 c-22 -58 -18 -67 33 -69 50 -2 48 -3 62 60 4 18 2 27 -6 28
-7 0 -28 2 -46 4 -28 3 -35 -1 -43 -23z"/>
<path d="M746 882 c-2 -4 -7 -24 -11 -45 -7 -36 -6 -37 22 -37 l30 0 -10 45
c-10 42 -20 55 -31 37z"/>
<path d="M784 873 c3 -10 8 -30 12 -45 6 -26 10 -28 58 -28 29 0 55 3 59 6 9
9 -11 56 -31 70 -9 8 -36 14 -60 14 -37 0 -43 -3 -38 -17z"/>
<path d="M19 748 c-6 -24 -12 -63 -13 -88 l-1 -45 84 -3 c59 -2 87 1 92 10 13
21 0 28 -56 28 -44 0 -57 4 -69 22 -9 12 -16 34 -16 48 0 26 2 26 65 27 96 2
95 1 95 23 0 18 -7 20 -85 20 l-84 0 -12 -42z"/>
<path d="M216 774 c-10 -25 1 -32 41 -27 44 5 45 5 37 27 -8 22 -70 22 -78 0z"/>
<path d="M416 774 c-3 -7 -8 -37 -11 -66 -7 -62 5 -85 51 -94 l32 -6 12 73 c6
41 14 82 16 92 5 15 -1 17 -45 16 -30 -1 -52 -7 -55 -15z"/>
<path d="M733 782 c-5 -4 -15 -36 -22 -72 -7 -36 -14 -73 -17 -82 -5 -16 2
-18 52 -18 l57 0 -6 81 c-4 45 -8 83 -10 86 -8 8 -44 11 -54 5z"/>
<path d="M811 781 c-4 -4 -7 -15 -5 -26 2 -11 5 -48 6 -82 2 -35 8 -63 13 -63
37 0 83 76 88 145 2 29 1 29 -46 30 -26 1 -51 -1 -56 -4z"/>
<path d="M1133 781 c-4 -3 -10 -19 -12 -36 -1 -16 -10 -48 -18 -70 -25 -69
-25 -69 45 -71 l62 -2 0 38 c0 22 -5 61 -11 88 -8 41 -15 51 -34 54 -13 3 -27
2 -32 -1z"/>
<path d="M200 630 c0 -17 7 -20 41 -20 33 0 40 3 35 16 -3 9 -6 18 -6 20 0 2
-16 4 -35 4 -28 0 -35 -4 -35 -20z"/>
<path d="M5 590 c-7 -11 1 -77 16 -135 l10 -40 90 -1 90 -1 -6 26 c-4 14 -8
33 -9 41 -2 11 -20 17 -63 21 -74 7 -80 11 -94 59 -12 40 -22 49 -34 30z"/>
<path d="M1033 553 c-18 -20 -33 -46 -33 -59 0 -12 -5 -35 -10 -50 -6 -15 -8
-29 -5 -32 3 -3 46 -6 97 -6 l91 -1 14 32 c7 18 16 60 20 93 l6 60 -74 0 c-73
0 -75 -1 -106 -37z"/>
<path d="M888 503 c-43 -2 -78 -8 -78 -13 0 -16 -2 -24 -11 -47 -11 -28 -1
-34 58 -35 112 -1 110 -1 117 38 4 19 10 42 13 50 3 8 0 13 -8 12 -8 -1 -49
-4 -91 -5z"/>
<path d="M210 486 c0 -7 5 -26 10 -43 11 -29 11 -29 96 -31 l85 -3 -5 28 c-2
15 -5 36 -5 46 -1 15 -12 17 -91 17 -69 0 -90 -3 -90 -14z"/>
<path d="M410 460 c0 -28 5 -43 16 -47 21 -8 30 5 37 50 6 36 5 37 -24 37 -27
0 -29 -2 -29 -40z"/>
<path d="M675 488 c-2 -7 -6 -28 -9 -45 l-4 -33 59 0 c32 0 59 3 59 8 1 4 3
24 6 45 l6 37 -56 0 c-36 0 -58 -4 -61 -12z"/>
<path d="M45 378 c8 -25 35 -73 73 -130 l25 -38 83 0 c46 0 84 2 84 5 0 3 -13
26 -29 52 -15 27 -36 67 -46 90 l-18 41 -89 1 c-88 1 -89 1 -83 -21z"/>
<path d="M240 390 c0 -15 25 -67 60 -124 34 -55 36 -57 74 -54 38 3 41 5 48
41 5 25 3 57 -5 90 l-13 52 -82 1 c-45 1 -82 -2 -82 -6z"/>
<path d="M421 387 c0 -7 4 -21 8 -32 7 -18 8 -17 13 7 3 17 0 29 -8 32 -8 3
-14 0 -13 -7z"/>
<path d="M662 391 c-5 -3 -14 -35 -21 -71 -6 -36 -13 -75 -15 -87 -4 -18 0
-23 17 -24 27 -1 71 2 75 6 7 6 60 170 56 174 -6 7 -102 8 -112 2z"/>
<path d="M814 392 c-17 -2 -27 -21 -50 -92 -29 -88 -29 -90 -9 -91 11 -1 36
-2 55 -3 42 -2 63 18 109 103 43 82 42 86 -26 86 -32 0 -67 -1 -79 -3z"/>
<path d="M931 305 c-24 -47 -49 -85 -54 -85 -6 0 -7 -3 -3 -7 4 -4 48 -8 98
-8 l91 0 30 40 c27 37 77 128 77 140 0 3 -44 5 -97 5 l-98 0 -44 -85z"/>
<path d="M205 153 c67 -61 159 -110 250 -133 112 -29 118 -25 43 25 -37 25
-90 68 -118 97 l-51 52 -86 1 -86 1 48 -43z"/>
<path d="M368 175 c42 -49 123 -114 181 -145 l24 -12 -26 33 c-14 19 -37 58
-52 87 -14 28 -29 53 -33 53 -4 1 -30 2 -59 3 -51 1 -52 1 -35 -19z"/>
<path d="M490 185 c0 -13 52 -102 79 -135 l21 -25 0 85 0 85 -50 0 c-28 0 -50
-4 -50 -10z"/>
<path d="M602 115 c-1 -41 2 -75 7 -75 5 0 25 26 45 58 57 93 55 89 55 72 1
-9 -19 -46 -43 -83 l-44 -66 32 16 c41 20 163 120 170 138 4 12 -14 14 -108
14 l-112 0 -2 -74z"/>
<path d="M840 169 c-22 -31 -138 -126 -177 -144 -18 -9 -33 -18 -33 -21 0 -9
102 7 164 27 73 22 168 77 216 125 l35 34 -95 0 c-86 0 -97 -2 -110 -21z"/>
</g>
</svg>
